{
    "results": [
        {
            "popularity": 77.328,
            "vote_count": 183,
            "video": false,
            "poster_path": "/hPkqY2EMqWUnFEoedukilIUieVG.jpg",
            "id": 531876,
            "adult": false,
            "backdrop_path": "/n1RohH2VoK1CdVI2fXvcP19dSlm.jpg",
            "original_language": "en",
            "original_title": "The Outpost",
            "genre_ids": [
                28,
                18,
                36,
                10752
            ],
            "title": "The Outpost",
            "vote_average": 6.9,
            "overview": "A small unit of U.S. soldiers, alone at the remote Combat Outpost Keating, located deep in the valley of three mountains in Afghanistan, battles to defend against an overwhelming force of Taliban fighters in a coordinated attack. The Battle of Kamdesh, as it was known, was the bloodiest American engagement of the Afghan War in 2009 and Bravo Troop 3-61 CAV became one of the most decorated units of the 19-year conflict.",
            "release_date": "2020-06-24"
        },
        {
            "popularity": 73.2,
            "vote_count": 4,
            "video": false,
            "poster_path": "/27eA9xGba61LtKr7gJRnhtDDgEP.jpg",
            "id": 651586,
            "adult": false,
            "backdrop_path": null,
            "original_language": "es",
            "original_title": "Superagente Makey",
            "genre_ids": [
                28,
                35
            ],
            "title": "Superagente Makey",
            "vote_average": 5,
            "overview": "Makey is a humble police officer that, unexpectedly, gets caught in the middle of a dangerous international drug operation in the Costa del Sol, Spain.",
            "release_date": "2020-07-17"
        }
    ],
    "page": 1,
    "total_results": 597,
    "dates": {
        "maximum": "2020-07-20",
        "minimum": "2020-06-02"
    },
    "total_pages": 30
}